<svg width="82" height="82" viewBox="0 0 82 82" fill="none" xmlns="http://www.w3.org/2000/svg">
<path d="M0 0H82V82H0V0Z" fill="#F7DF1E"/>
<path d="M21.5609 68.525L27.8358 64.7274C29.0466 66.8738 30.1478 68.69 32.7894 68.69C35.3215 68.69 36.9182 67.6996 36.9182 63.8469V37.646H44.624V63.9558C44.624 71.937 39.9455 75.57 33.1197 75.57C26.9553 75.57 23.377 72.3774 21.5605 68.5244L21.5609 68.525ZM48.8095 67.6993L55.0838 64.0666C56.7357 66.764 58.8824 68.7454 62.68 68.7454C65.8732 68.7454 67.9091 67.149 67.9091 64.9471C67.9091 62.3052 65.8175 61.3693 62.2947 59.8286L60.3686 59.0021C54.809 56.636 51.1212 53.6635 51.1212 47.3886C51.1212 41.6089 55.5246 37.2052 62.4052 37.2052C67.304 37.2052 70.8268 38.9118 73.3586 43.3703L67.3585 47.2236C66.0372 44.8568 64.6067 43.9212 62.4049 43.9212C60.1479 43.9212 58.7168 45.3523 58.7168 47.2236C58.7168 49.5353 60.1479 50.4716 63.4504 51.9027L65.3767 52.7282C71.9271 55.5357 75.6149 58.3977 75.6149 64.8373C75.6149 71.7733 70.1657 75.5709 62.845 75.5709C55.6895 75.5709 51.0658 72.1583 48.8092 67.6996" fill="black"/>
</svg>
